{
  "translations": {
    "LOGIN": "s'identifier",
    "SIGNUP": "s'inscrire",
    "YOUR ORDER": "votre commande",
    "FILTER":"FILTRE",
    "APPLY": "APPLIQUER",
    "Total": "TOTALE",
    "Checkout": "Check-out",
    "Fees & Discounts": "Frais et réductions",
    "ENTER COUPON CODE": "ENTRER LE CODE DE RÉDUCTION",
    "What you order will appear here": "Ce que vous commandez apparaîtra ici.",
    "We accept payment by": "Nous acceptons le paiement par",
    "Search for": "Rechercher...",
    "LOGIN TO YOUR ACCOUNT": "CONNECTEZ-VOUS À VOTRE COMPTE",
    "Don't have an account": "Vous n'avez pas de compte?",
    "CREATE YOUR ACCOUNT": "CRÉEZ VOTRE COMPTE",
    "Create an account": "Créer un compte",
    "USER NAME": "NOM D'UTILISATEUR",
    "First Name*": "Prénom*",
    "Last Name*": "Nom de famille*",
    "PASSWORD": "MOT DE PASSE",
    "Phone": "Téléphone",
    "Phone*": "Téléphone*",
    "CONFIRM PASSWORD": "CONFIRMEZ LE MOT DE PASSE",
    "Confirm Password*": "Confirmez le mot de passe*",
    "Already have an account": "Vous avez déjà un compte?",
    "EMAIL": "EMAIL",
    "Email*": "Email*",
    "Please fill the First Name": "Veuillez remplir le prénom",
    "Please fill the Last Name": "Veuillez remplir le nom",
    "Please fill the Phone": "Veuillez remplir le téléphone",
    "Please fill the Username": "Veuillez remplir le nom d'utilisateur",
    "Please fill in the Email": "Veuillez remplir l'e-mail",
    "Please fill in the Password": "Veuillez remplir le mot de passe",
    "Please fill in the Confirm Password": "Veuillez remplir le mot de passe de confirmation",
    "Password does not match": "Le mot de passe ne correspond pas",
    "All pizzas": "Toutes les pizzas sont faites à base de tomates et garnies de notre mélange de fromages maison",
    "YOUR ORDER WILL BE READY FOR PICKUP AT": "VOTRE COMMANDE SERA PRÊT POUR LE RETRAIT À",
    "Ready Time": "Temps prêt",
    "Friday, 24/7/2020": "Vendredi, 24/7/2020",
    "Customer Details": "Détails du client",
    "User last": "Dernier utilisateur",
    "You May Leave": "Vous pouvez laisser un message supplémentaire, par exemple: «zéro contact pickup» ou «zero contact delivery» (si disponible)",
    "Next": "Prochain",
    "Cash": "En espèces",
    "Preparing" : "en cours de préparation",
    "Submit Payment": "Soumettre le paiement",
    "Start new Order": "Commencer une nouvelle commande",
    "View Past Orders": "Voir les commandes passées",
    "I need directions to the restaurant": "J'ai besoin d'un chemin vers le restaurant",
    "Need help with anything? Call 0643578216": "Besoin d'aide pour quelque chose? Appeler le 0643578216",
    "An email confirmation will be sent to email": "Un e-mail de confirmation sera envoyé à email",
    "ESTIMATED TIME": "TEMPS ESTIMÉ",
    "Tax Invoice": "Facture Fiscale",
    "for": "Pour",
    "at": "à",
    "from": "de",
    "your order": "Votre commande",
    "special instruction": "Instruction spécifique",
    "Payment Type": "Type de paiement",
    "Atlassima group": "Groupe Atlassima",
    "address": "Adresse",
    "phone:": "Tel:",
    "Payment your order here": "Paiement de votre commande ici",
    "CUSTOMER": "Client",
    "YOUR PERSONAL INFORMATION": "Votre informations personnelles",
    "name": "nom",
    "re-order": "Refaire la commande",
    "ORDER NUMBER": "NUMÉRO DE COMMANDE",
    "Order Submitted": "Commande soumise",
    "Welcome Back": "Bienvenue encore une fois",
    "USER": "UTILISATRICE",
    "This is your dashboard!": "Ceci est votre tableau de bord!",
    "YOUR ORDER HISTORY": "VOTRE HISTORIQUE DE COMMANDE",
    "BACK TO HOME": "Retourner à la page d'acceuil",
    "Your order will appear here": "Votre commande apparaîtra ici",
    "CHANGE PASSWORD": "CHANGER LE MOT DE PASSE",
    "ENTER OLD PASSWORD": "ENTRER ANCIEN MOT DE PASSE",
    "ENTER NEW PASSWORD": "ENTREZ UN NOUVEAU MOT DE PASSE",
    "CONFIRM NEW PASSWORD": "CONFIRMER LE NOUVEAU MOT DE PASSE",
    "User": "Utilisatrice",
    "User@user.com": "Utilisateur@user.com",
    "First Name": "Prénom",
    "Last Name": "Nom de famille",
    "MY ACCOUNT": "Mon Compte",
    "AccountData" : [
      { "name": "Commandes passées" },
      { "name": "Changer le mot de passe" },
      { "name": "Détails personnels" },
      { "name": "Déconnexion" }
    ]
  }
}